<svg width="569" height="151" viewBox="0 0 569 151" fill="none" xmlns="http://www.w3.org/2000/svg">
<mask id="mask0" mask-type="alpha" maskUnits="userSpaceOnUse" x="0" y="0" width="569" height="151">
<rect width="569" height="151" fill="white"/>
</mask>
<g mask="url(#mask0)">
<line x1="569" y1="65.5" x2="1" y2="65.5" stroke="#F0F0F0"/>
<line x1="569" y1="95.5" x2="1" y2="95.5" stroke="#F0F0F0"/>
<line x1="569" y1="35.5" x2="1" y2="35.5" stroke="#F0F0F0"/>
<line x1="104.5" y1="-2.18557e-08" x2="104.5" y2="131" stroke="#F0F0F0"/>
<line x1="251.5" y1="-2.18557e-08" x2="251.5" y2="131" stroke="#F0F0F0"/>
<line x1="398.5" y1="-2.18557e-08" x2="398.5" y2="131" stroke="#F0F0F0"/>
<path d="M97.16 146.92L98.096 146.728V147.256C98.096 147.592 98.1787 147.837 98.344 147.992C98.5093 148.141 98.7173 148.216 98.968 148.216C99.224 148.216 99.4267 148.136 99.576 147.976C99.7253 147.811 99.8 147.584 99.8 147.296V143.328H100.76V147.272C100.76 147.523 100.717 147.76 100.632 147.984C100.547 148.208 100.427 148.405 100.272 148.576C100.117 148.741 99.9307 148.875 99.712 148.976C99.4933 149.072 99.248 149.12 98.976 149.12C98.6987 149.12 98.448 149.077 98.224 148.992C98 148.901 97.808 148.776 97.648 148.616C97.4933 148.456 97.3733 148.264 97.288 148.04C97.2027 147.816 97.16 147.565 97.16 147.288V146.92ZM101.719 147.944C101.719 147.768 101.749 147.613 101.807 147.48C101.871 147.347 101.954 147.232 102.055 147.136C102.162 147.035 102.287 146.955 102.431 146.896C102.575 146.837 102.73 146.795 102.895 146.768L103.895 146.616C104.007 146.6 104.082 146.568 104.119 146.52C104.162 146.467 104.183 146.405 104.183 146.336C104.183 146.171 104.125 146.032 104.007 145.92C103.89 145.803 103.703 145.744 103.447 145.744C103.202 145.744 103.013 145.813 102.879 145.952C102.746 146.085 102.669 146.251 102.647 146.448L101.799 146.256C101.815 146.091 101.866 145.931 101.951 145.776C102.037 145.621 102.149 145.485 102.287 145.368C102.426 145.251 102.591 145.157 102.783 145.088C102.981 145.019 103.199 144.984 103.439 144.984C103.738 144.984 103.991 145.024 104.199 145.104C104.413 145.184 104.583 145.291 104.711 145.424C104.845 145.557 104.941 145.712 104.999 145.888C105.063 146.064 105.095 146.248 105.095 146.44V148.376C105.095 148.552 105.101 148.696 105.111 148.808C105.127 148.915 105.138 148.979 105.143 149H104.279C104.274 148.989 104.266 148.944 104.255 148.864C104.245 148.779 104.239 148.659 104.239 148.504C104.149 148.653 104.005 148.795 103.807 148.928C103.61 149.056 103.354 149.12 103.039 149.12C102.837 149.12 102.653 149.088 102.487 149.024C102.327 148.96 102.189 148.875 102.071 148.768C101.959 148.656 101.871 148.531 101.807 148.392C101.749 148.248 101.719 148.099 101.719 147.944ZM103.215 148.392C103.343 148.392 103.466 148.376 103.583 148.344C103.701 148.307 103.802 148.251 103.887 148.176C103.978 148.096 104.05 147.992 104.103 147.864C104.157 147.736 104.183 147.576 104.183 147.384V147.208L103.167 147.36C103.023 147.387 102.901 147.443 102.799 147.528C102.698 147.608 102.647 147.728 102.647 147.888C102.647 148.021 102.695 148.139 102.791 148.24C102.887 148.341 103.029 148.392 103.215 148.392ZM107.145 149H106.217V145.104H107.121V145.624C107.249 145.4 107.417 145.24 107.625 145.144C107.839 145.043 108.055 144.992 108.273 144.992C108.513 144.992 108.721 145.032 108.897 145.112C109.073 145.192 109.217 145.304 109.329 145.448C109.447 145.587 109.535 145.749 109.593 145.936C109.652 146.123 109.681 146.323 109.681 146.536V149H108.753V146.696C108.753 146.456 108.692 146.253 108.569 146.088C108.452 145.917 108.247 145.832 107.953 145.832C107.687 145.832 107.484 145.923 107.345 146.104C107.212 146.28 107.145 146.496 107.145 146.752V149Z" fill="#A9B2B2"/>
<path d="M244.68 149V143.328H248.208V144.232H245.64V145.824H247.944V146.712H245.64V149H244.68ZM251.348 146.624C251.342 146.512 251.318 146.405 251.276 146.304C251.238 146.197 251.18 146.104 251.1 146.024C251.02 145.944 250.921 145.88 250.804 145.832C250.686 145.784 250.548 145.76 250.388 145.76C250.244 145.76 250.113 145.787 249.996 145.84C249.884 145.888 249.788 145.955 249.708 146.04C249.628 146.12 249.564 146.213 249.516 146.32C249.468 146.421 249.441 146.523 249.436 146.624H251.348ZM252.236 147.888C252.182 148.059 252.105 148.219 252.004 148.368C251.902 148.517 251.777 148.648 251.628 148.76C251.478 148.872 251.308 148.96 251.116 149.024C250.924 149.088 250.71 149.12 250.476 149.12C250.209 149.12 249.956 149.075 249.716 148.984C249.476 148.888 249.265 148.752 249.084 148.576C248.902 148.395 248.756 148.176 248.644 147.92C248.537 147.659 248.484 147.363 248.484 147.032C248.484 146.723 248.534 146.443 248.636 146.192C248.742 145.941 248.884 145.728 249.06 145.552C249.236 145.371 249.438 145.232 249.668 145.136C249.897 145.035 250.134 144.984 250.38 144.984C250.678 144.984 250.945 145.032 251.18 145.128C251.42 145.224 251.62 145.36 251.78 145.536C251.945 145.712 252.07 145.925 252.156 146.176C252.241 146.421 252.284 146.699 252.284 147.008C252.284 147.083 252.281 147.149 252.276 147.208C252.27 147.261 252.265 147.293 252.26 147.304H249.412C249.417 147.453 249.449 147.589 249.508 147.712C249.566 147.835 249.644 147.941 249.74 148.032C249.836 148.123 249.945 148.195 250.068 148.248C250.196 148.296 250.332 148.32 250.476 148.32C250.758 148.32 250.974 148.256 251.124 148.128C251.278 147.995 251.388 147.832 251.452 147.64L252.236 147.888ZM253.17 149V143.208H254.082V145.584C254.173 145.429 254.322 145.293 254.53 145.176C254.744 145.059 255.002 145 255.306 145C255.6 145 255.858 145.053 256.082 145.16C256.306 145.261 256.493 145.405 256.642 145.592C256.797 145.773 256.912 145.987 256.986 146.232C257.066 146.477 257.106 146.744 257.106 147.032C257.106 147.325 257.064 147.6 256.978 147.856C256.893 148.107 256.77 148.325 256.61 148.512C256.456 148.693 256.264 148.837 256.034 148.944C255.81 149.045 255.557 149.096 255.274 149.096C254.997 149.096 254.754 149.04 254.546 148.928C254.344 148.816 254.186 148.667 254.074 148.48V149H253.17ZM256.17 147.04C256.17 146.651 256.072 146.352 255.874 146.144C255.682 145.931 255.432 145.824 255.122 145.824C254.824 145.824 254.573 145.931 254.37 146.144C254.173 146.352 254.074 146.651 254.074 147.04C254.074 147.232 254.101 147.405 254.154 147.56C254.208 147.709 254.28 147.837 254.37 147.944C254.466 148.051 254.578 148.133 254.706 148.192C254.834 148.245 254.973 148.272 255.122 148.272C255.426 148.272 255.677 148.163 255.874 147.944C256.072 147.725 256.17 147.424 256.17 147.04Z" fill="#A9B2B2"/>
<path d="M395.968 149V144.824L394.2 149H393.368L391.616 144.84V149H390.68V143.328H391.96L393.8 147.656L395.616 143.328H396.92V149H395.968ZM397.938 147.944C397.938 147.768 397.967 147.613 398.026 147.48C398.09 147.347 398.173 147.232 398.274 147.136C398.381 147.035 398.506 146.955 398.65 146.896C398.794 146.837 398.949 146.795 399.114 146.768L400.114 146.616C400.226 146.6 400.301 146.568 400.338 146.52C400.381 146.467 400.402 146.405 400.402 146.336C400.402 146.171 400.343 146.032 400.226 145.92C400.109 145.803 399.922 145.744 399.666 145.744C399.421 145.744 399.231 145.813 399.098 145.952C398.965 146.085 398.887 146.251 398.866 146.448L398.018 146.256C398.034 146.091 398.085 145.931 398.17 145.776C398.255 145.621 398.367 145.485 398.506 145.368C398.645 145.251 398.81 145.157 399.002 145.088C399.199 145.019 399.418 144.984 399.658 144.984C399.957 144.984 400.21 145.024 400.418 145.104C400.631 145.184 400.802 145.291 400.93 145.424C401.063 145.557 401.159 145.712 401.218 145.888C401.282 146.064 401.314 146.248 401.314 146.44V148.376C401.314 148.552 401.319 148.696 401.33 148.808C401.346 148.915 401.357 148.979 401.362 149H400.498C400.493 148.989 400.485 148.944 400.474 148.864C400.463 148.779 400.458 148.659 400.458 148.504C400.367 148.653 400.223 148.795 400.026 148.928C399.829 149.056 399.573 149.12 399.258 149.12C399.055 149.12 398.871 149.088 398.706 149.024C398.546 148.96 398.407 148.875 398.29 148.768C398.178 148.656 398.09 148.531 398.026 148.392C397.967 148.248 397.938 148.099 397.938 147.944ZM399.434 148.392C399.562 148.392 399.685 148.376 399.802 148.344C399.919 148.307 400.021 148.251 400.106 148.176C400.197 148.096 400.269 147.992 400.322 147.864C400.375 147.736 400.402 147.576 400.402 147.384V147.208L399.386 147.36C399.242 147.387 399.119 147.443 399.018 147.528C398.917 147.608 398.866 147.728 398.866 147.888C398.866 148.021 398.914 148.139 399.01 148.24C399.106 148.341 399.247 148.392 399.434 148.392ZM404.716 146.024C404.609 146.008 404.508 146 404.412 146C404.049 146 403.783 146.099 403.612 146.296C403.447 146.493 403.364 146.776 403.364 147.144V149H402.436V145.104H403.34V145.728C403.431 145.515 403.577 145.349 403.78 145.232C403.983 145.115 404.212 145.056 404.468 145.056C404.527 145.056 404.577 145.059 404.62 145.064C404.663 145.069 404.695 145.075 404.716 145.08V146.024Z" fill="#A9B2B2"/>
<path d="M-22 114C-22 114 51.7114 70.0017 125.026 70.0017C198.341 70.0017 198.341 17 271.656 17C344.055 17 344.055 94.373 417.37 94.373C490.685 94.373 564 25.5181 564 25.5181" stroke="#86BA16" stroke-width="4" stroke-linecap="round" stroke-linejoin="round"/>
<circle cx="398" cy="92" r="8" fill="#86BA16" stroke="white" stroke-width="4"/>
<circle cx="251" cy="18" r="8" fill="#86BA16" stroke="white" stroke-width="4"/>
<circle cx="104" cy="70" r="8" fill="#86BA16" stroke="white" stroke-width="4"/>
</g>
</svg>
