<svg width="151" height="151" viewBox="0 0 151 151" fill="none" xmlns="http://www.w3.org/2000/svg">
<circle cx="75.5" cy="75.5" r="75.5" fill="#86BA16" fill-opacity="0.15"/>
<path d="M62.9336 70.9149H64.9647V45H64.1492H62.9336V70.9149Z" fill="#86BA16"/>
<path d="M59.5078 45H61.6659V70.9149H59.5078V45Z" fill="#86BA16"/>
<path d="M90.225 52.0341C89.3778 51.9246 88.5892 51.5399 87.9793 50.9385C87.3694 50.3371 86.9714 49.5518 86.8459 48.7021H73.2834C72.9307 50.428 71.35 51.7915 69.4062 52.0388V67.451C70.1886 65.3858 71.5443 63.5901 73.3121 62.2773C75.0798 60.9645 77.1853 60.1898 79.3782 60.0455C81.5711 59.9011 83.759 60.3931 85.6819 61.463C87.6048 62.5329 89.1816 64.1356 90.225 66.0806V52.0341ZM80.1274 56.6899C79.546 56.69 78.9777 56.5166 78.4943 56.1918C78.0109 55.867 77.6341 55.4053 77.4116 54.8651C77.1891 54.325 77.131 53.7306 77.2444 53.1572C77.3578 52.5838 77.6378 52.0571 78.049 51.6437C78.4601 51.2303 78.9839 50.9488 79.5541 50.8348C80.1243 50.7208 80.7153 50.7794 81.2524 51.0032C81.7895 51.227 82.2486 51.6059 82.5715 52.0921C82.8944 52.5783 83.0668 53.1498 83.0667 53.7345C83.0658 54.5182 82.7558 55.2695 82.2048 55.8237C81.6538 56.3778 80.9067 56.6895 80.1274 56.6904V56.6899Z" fill="#86BA16"/>
<path d="M80.1271 52.0552C79.7968 52.0552 79.4739 52.1536 79.1993 52.3381C78.9246 52.5227 78.7106 52.7849 78.5842 53.0918C78.4578 53.3987 78.4247 53.7364 78.4891 54.0621C78.5535 54.3879 78.7126 54.6872 78.9461 54.922C79.1797 55.1569 79.4773 55.3168 79.8012 55.3816C80.1252 55.4464 80.4609 55.4132 80.7661 55.286C81.0712 55.1589 81.332 54.9437 81.5155 54.6675C81.699 54.3913 81.7969 54.0666 81.7969 53.7344C81.7964 53.2892 81.6203 52.8624 81.3073 52.5476C80.9942 52.2328 80.5698 52.0557 80.1271 52.0552Z" fill="#86BA16"/>
<path d="M90.2274 70.9149V70.1362C89.5352 65.1773 85.272 61.2954 80.1298 61.2954C77.5357 61.2986 75.0401 62.2947 73.1499 64.0814C71.2597 65.8681 70.1168 68.3114 69.9531 70.9149H71.6525C71.811 68.763 72.773 66.751 74.3453 65.2826C75.9176 63.8142 77.984 62.9982 80.1297 62.9982C82.2754 62.9982 84.3418 63.8142 85.9141 65.2826C87.4864 66.751 88.4483 68.763 88.6069 70.9149H90.2274Z" fill="#86BA16"/>
<path d="M91.5794 70.9149H94.035V45H66.2344V70.9149H68.1385V51.4406C68.1385 51.2713 68.2054 51.1089 68.3244 50.9892C68.4435 50.8695 68.6049 50.8023 68.7732 50.8023C70.5251 50.8023 72.0437 49.5394 72.0883 48.0448C72.0932 47.8789 72.1623 47.7214 72.2808 47.6058C72.3993 47.4902 72.5579 47.4256 72.723 47.4257H87.423C87.5881 47.4256 87.7468 47.4902 87.8653 47.6058C87.9838 47.7214 88.0528 47.8789 88.0578 48.0448C88.1069 49.6943 89.2339 50.8023 90.8622 50.8023C91.0305 50.8023 91.192 50.8695 91.311 50.9892C91.43 51.1089 91.4969 51.2713 91.4969 51.4406V70.0213C91.5351 70.3173 91.5631 70.6596 91.5794 70.9149Z" fill="#86BA16"/>
<path d="M80.1257 64.2749C78.3183 64.2806 76.578 64.9644 75.2456 66.1926C73.9132 67.4207 73.0846 69.1047 72.9219 70.915H87.329C87.1663 69.1048 86.3377 67.4209 85.0054 66.1928C83.6731 64.9646 81.933 64.2807 80.1257 64.2749Z" fill="#86BA16"/>
<path d="M51.0273 66.4469C51.0286 67.0359 51.1454 67.6189 51.371 68.1624C51.5967 68.706 51.9267 69.1994 52.3423 69.6144C52.7579 70.0295 53.2508 70.358 53.7929 70.5812C54.3349 70.8044 54.9154 70.9178 55.5011 70.915H58.2346V61.9788H55.5011C54.9154 61.976 54.3349 62.0894 53.7929 62.3126C53.2508 62.5358 52.7579 62.8643 52.3423 63.2793C51.9267 63.6944 51.5967 64.1878 51.371 64.7314C51.1454 65.2749 51.0286 65.8579 51.0273 66.4469Z" fill="#86BA16"/>
<path d="M55.586 105H97.9691V96.0638H93.4361C92.606 96.0716 91.785 95.8897 91.0351 95.5317L87.8186 93.9787C86.8969 93.5251 86.1203 92.8205 85.5771 91.945C85.0339 91.0695 84.7459 90.0583 84.7459 89.0264C84.7459 87.9945 85.0339 86.9833 85.5771 86.1078C86.1203 85.2323 86.8969 84.5277 87.8186 84.0741L91.0351 82.4808C91.7812 82.1056 92.602 81.9049 93.4361 81.8936H97.8422V72.1914H55.5023C53.6956 72.1914 52.1425 71.3514 51 70.0356V100.443C51 102.97 53.073 105 55.586 105ZM55.3161 75.7356C55.3161 75.5664 55.383 75.404 55.502 75.2843C55.621 75.1646 55.7825 75.0973 55.9508 75.0973C56.1191 75.0973 56.2806 75.1646 56.3996 75.2843C56.5186 75.404 56.5855 75.5664 56.5855 75.7356V76.5399C56.5855 76.7092 56.5186 76.8715 56.3996 76.9912C56.2806 77.1109 56.1191 77.1782 55.9508 77.1782C55.7825 77.1782 55.621 77.1109 55.502 76.9912C55.383 76.8715 55.3161 76.7092 55.3161 76.5399V75.7356ZM55.3161 78.9654C55.3161 78.7961 55.383 78.6338 55.502 78.5141C55.621 78.3944 55.7825 78.3271 55.9508 78.3271C56.1191 78.3271 56.2806 78.3944 56.3996 78.5141C56.5186 78.6338 56.5855 78.7961 56.5855 78.9654V91.2207C56.5855 91.39 56.5186 91.5524 56.3996 91.6721C56.2806 91.7918 56.1191 91.859 55.9508 91.859C55.7825 91.859 55.621 91.7918 55.502 91.6721C55.383 91.5524 55.3161 91.39 55.3161 91.2207V78.9654Z" fill="#86BA16"/>
<path d="M99.9966 83.1702H93.4325C92.7914 83.1805 92.161 83.3364 91.5882 83.6262L88.3719 85.2325C87.6642 85.5788 87.0677 86.1182 86.6504 86.7891C86.233 87.4601 86.0117 88.2355 86.0117 89.0269C86.0117 89.8183 86.233 90.5938 86.6504 91.2647C87.0677 91.9357 87.6642 92.4751 88.3719 92.8214L91.5884 94.3863C92.1649 94.6588 92.7955 94.7959 93.4325 94.7872H99.9966V83.1702ZM91.0165 91.6529C90.5018 91.6529 89.9986 91.4994 89.5707 91.2118C89.1427 90.9243 88.8092 90.5156 88.6122 90.0374C88.4153 89.5592 88.3637 89.033 88.4641 88.5253C88.5646 88.0177 88.8124 87.5513 89.1763 87.1854C89.5403 86.8194 90.004 86.5701 90.5088 86.4691C91.0136 86.3682 91.5368 86.42 92.0124 86.6181C92.4879 86.8161 92.8943 87.1516 93.1803 87.5819C93.4662 88.0123 93.6188 88.5183 93.6188 89.0359C93.6179 89.7297 93.3435 90.3948 92.8556 90.8854C92.3678 91.376 91.7064 91.652 91.0165 91.6529Z" fill="#86BA16"/>
<path d="M91.0207 90.3762C91.7569 90.3762 92.3538 89.7759 92.3538 89.0355C92.3538 88.2951 91.7569 87.6948 91.0207 87.6948C90.2844 87.6948 89.6875 88.2951 89.6875 89.0355C89.6875 89.7759 90.2844 90.3762 91.0207 90.3762Z" fill="#86BA16"/>
</svg>
