<svg width="8" height="14" viewBox="0 0 8 14" fill="none" xmlns="http://www.w3.org/2000/svg">
<path d="M0.742188 13.4286L7.18551 6.99998L0.742188 0.571411" stroke="#B3B3B3" stroke-linecap="round" stroke-linejoin="round"/>
</svg>
